%YAML 1.1
%TAG !u! tag:unity3d.com,2011:
--- !u!1045 &1
EditorBuildSettings:
  m_ObjectHideFlags: 0
  serializedVersion: 2
  m_Scenes:
  - enabled: 1
    path: Assets/Menu.unity
    guid: b8734f6008e35d2478214b157f6577c8
  - enabled: 1
    path: Assets/level1.unity
    guid: 776f9bec53a4c23449231f1b0133620b
  - enabled: 1
    path: Assets/level2.unity
    guid: 0736a0e8a0c7ce649870e0efd54b06db
  - enabled: 1
    path: Assets/level3.unity
    guid: 9138eabfda495ef4dbc2e1384eafb6b4
  - enabled: 1
    path: Assets/Victory.unity
    guid: 89557f3b634a6da4e97b5f85511ff607
  - enabled: 1
    path: Assets/Game Over.unity
    guid: f9babf1b551c8d5488719f0080a9ae59
